Financial Big Data Quiz 3
…
Financial Big Data Quiz 3

108070014 陳品妤

Question 1

flights %>% transmute(across(ends_with("time") & -air_time,
                             ~ 60*as.integer(str_sub(.x, 1, -3))+as.integer(str_sub(.x, -2, -1)), .names = "new_{.col}"))

# A tibble: 336,776 × 4
   new_dep_time new_sched_dep_time new_arr_time new_sched_arr_time
          <dbl>              <dbl>        <dbl>              <dbl>
 1          317                315          510                499
 2          333                329          530                510
 3          342                340          563                530
 4          344                345          604                622
 5          354                360          492                517
 6          354                358          460                448
 7          355                360          553                534
 8          357                360          429                443
 9          357                360          518                526
10          358                360          473                465
# … with 336,766 more rows
…
new_sched_arr_time: This variable is the transformed version of the
original sched_arr_time variable. It represents the scheduled arrival
time in minutes since midnight. The original sched_arr_time variable was
a string in the format “HH:MM:SS”, and the new variable converts this to
minutes using the same method as new_dep_time.

flights %>% 
  transmute(scheduled_air_time = air_time - dep_delay,
            actual_air_time = air_time - arr_delay)

# A tibble: 336,776 × 2
   scheduled_air_time actual_air_time
                <dbl>           <dbl>
 1                225             216
 2                223             207
 3                158             127
 4                184             201
 5                122             141
 6                154             138
 7                163             139
 8                 56              67
 9                143             148
10                140             130
# … with 336,766 more rows
…
